[
	{
		"id": "1",
		"type": "cons",
		"s": 56.2389,
		"d": 43.4323,
		"serial": "XA324VVC",
		"optional": "info"
	},
	{
		"id": "2",
		"type": "cons",
		"s": 56.2472,
		"d": 43.4122,
		"serial": "XA324VDC",
		"optional": "info"
	}
]